[gd_scene load_steps=9 format=2]

[ext_resource path="res://Scenes/Levels.tscn" type="PackedScene" id=1]
[ext_resource path="res://Scripts/Main.gd" type="Script" id=2]
[ext_resource path="res://Scenes/Game.tscn" type="PackedScene" id=3]
[ext_resource path="res://Scenes/GUI.tscn" type="PackedScene" id=4]
[ext_resource path="res://Scenes/Menu.tscn" type="PackedScene" id=5]
[ext_resource path="res://Scenes/Info.tscn" type="PackedScene" id=7]
[ext_resource path="res://Scenes/Bonuses.tscn" type="PackedScene" id=8]
[ext_resource path="res://Scenes/InfoMenu.tscn" type="PackedScene" id=9]

[node name="Main" type="Control"]
anchor_right = 1.0
anchor_bottom = 1.0
mouse_filter = 2
script = ExtResource( 2 )
__meta__ = {
"_edit_use_anchors_": false
}
ACTIVE_SCENES = [ 0, 1, 2, 5, 6 ]

[node name="Game" parent="." instance=ExtResource( 3 )]

[node name="Levels" parent="." instance=ExtResource( 1 )]

[node name="Bonuses" parent="." instance=ExtResource( 8 )]
visible = false

[node name="Info" parent="." instance=ExtResource( 7 )]

[node name="InfoMenu" parent="." instance=ExtResource( 9 )]

[node name="Menu" parent="." instance=ExtResource( 5 )]
visible = false

[node name="GUI" parent="." instance=ExtResource( 4 )]

[node name="Tween" type="Tween" parent="."]
